<?xml version="1.0" encoding="UTF-8" standalone="no"?>
<!-- Created with Inkscape (http://www.inkscape.org/) -->

<svg
   width="210mm"
   height="297mm"
   viewBox="0 0 210 297"
   version="1.1"
   id="svg5"
   xml:space="preserve"
   inkscape:version="1.2.2 (b0a8486541, 2022-12-01)"
   sodipodi:docname="lfp.svg"
   inkscape:export-filename="lfp.pdf"
   inkscape:export-xdpi="96"
   inkscape:export-ydpi="96"
   xmlns:inkscape="http://www.inkscape.org/namespaces/inkscape"
   xmlns:sodipodi="http://sodipodi.sourceforge.net/DTD/sodipodi-0.dtd"
   xmlns:xlink="http://www.w3.org/1999/xlink"
   xmlns="http://www.w3.org/2000/svg"
   xmlns:svg="http://www.w3.org/2000/svg"><sodipodi:namedview
     id="namedview7"
     pagecolor="#ffffff"
     bordercolor="#000000"
     borderopacity="0.25"
     inkscape:showpageshadow="2"
     inkscape:pageopacity="0.0"
     inkscape:pagecheckerboard="0"
     inkscape:deskcolor="#d1d1d1"
     inkscape:document-units="mm"
     showgrid="true"
     inkscape:zoom="0.71980921"
     inkscape:cx="-150.73439"
     inkscape:cy="404.27379"
     inkscape:window-width="1920"
     inkscape:window-height="1043"
     inkscape:window-x="0"
     inkscape:window-y="0"
     inkscape:window-maximized="1"
     inkscape:current-layer="layer1"><inkscape:grid
       type="xygrid"
       id="grid790" /></sodipodi:namedview><defs
     id="defs2"><marker
       style="overflow:visible"
       id="Arrow1"
       refX="0"
       refY="0"
       orient="auto-start-reverse"
       inkscape:stockid="Arrow1"
       markerWidth="4.0606599"
       markerHeight="6.7071066"
       viewBox="0 0 4.0606602 6.7071068"
       inkscape:isstock="true"
       inkscape:collect="always"
       preserveAspectRatio="xMidYMid"><path
         style="fill:none;stroke:context-stroke;stroke-width:1;stroke-linecap:butt"
         d="M 3,-3 0,0 3,3"
         id="path5057"
         transform="rotate(180,0.125,0)"
         sodipodi:nodetypes="ccc" /></marker><style
       id="style234">.cls-1{stroke:#231815;fill:url(#radial-gradient);}.cls-2{fill:url(#青グラデーション);}.cls-3{fill:url(#青グラデーション-2);}</style><radialGradient
       id="radial-gradient"
       cx="291"
       cy="453.51"
       r="304.08"
       gradientUnits="userSpaceOnUse"><stop
         offset="0"
         stop-color="#e2e40a"
         id="stop236" /><stop
         offset="0.12"
         stop-color="#d4e12c"
         id="stop238" /><stop
         offset="0.44"
         stop-color="#b1d97e"
         id="stop240" /><stop
         offset="0.71"
         stop-color="#97d3ba"
         id="stop242" /><stop
         offset="0.9"
         stop-color="#87cfdf"
         id="stop244" /><stop
         offset="1"
         stop-color="#81ceed"
         id="stop246" /></radialGradient><radialGradient
       id="青グラデーション"
       cx="280.45"
       cy="299.1"
       r="44.05"
       gradientUnits="userSpaceOnUse"><stop
         offset="0"
         stop-color="#00a9eb"
         id="stop249" /><stop
         offset="0.25"
         stop-color="#0089d0"
         id="stop251" /><stop
         offset="0.5"
         stop-color="#0d3893"
         id="stop253" /><stop
         offset="0.75"
         stop-color="#342977"
         id="stop255" /><stop
         offset="1"
         stop-color="#000003"
         id="stop257" /></radialGradient><radialGradient
       id="青グラデーション-2"
       cx="280.13"
       cy="435.5"
       r="44.17"
       xlink:href="#青グラデーション" /><radialGradient
       inkscape:collect="always"
       xlink:href="#青グラデーション"
       id="radialGradient294"
       gradientUnits="userSpaceOnUse"
       cx="280.45"
       cy="299.1"
       r="44.05" /><radialGradient
       id="radial-gradient-3"
       cx="291"
       cy="453.51001"
       r="304.07999"
       gradientUnits="userSpaceOnUse"><stop
         offset="0"
         stop-color="#e2e40a"
         id="stop236-6" /><stop
         offset="0.12"
         stop-color="#d4e12c"
         id="stop238-7" /><stop
         offset="0.44"
         stop-color="#b1d97e"
         id="stop240-5" /><stop
         offset="0.71"
         stop-color="#97d3ba"
         id="stop242-3" /><stop
         offset="0.9"
         stop-color="#87cfdf"
         id="stop244-5" /><stop
         offset="1"
         stop-color="#81ceed"
         id="stop246-6" /></radialGradient><radialGradient
       inkscape:collect="always"
       xlink:href="#%E9%9D%92%E3%82%B0%E3%83%A9%E3%83%87%E3%83%BC%E3%82%B7%E3%83%A7%E3%83%B3"
       id="radialGradient294-2"
       gradientUnits="userSpaceOnUse"
       cx="280.45001"
       cy="299.10001"
       r="44.049999" /><radialGradient
       id="青グラデーション-9"
       cx="280.45001"
       cy="299.10001"
       r="44.049999"
       gradientUnits="userSpaceOnUse"><stop
         offset="0"
         stop-color="#00a9eb"
         id="stop249-1" /><stop
         offset="0.25"
         stop-color="#0089d0"
         id="stop251-2" /><stop
         offset="0.5"
         stop-color="#0d3893"
         id="stop253-7" /><stop
         offset="0.75"
         stop-color="#342977"
         id="stop255-0" /><stop
         offset="1"
         stop-color="#000003"
         id="stop257-9" /></radialGradient><radialGradient
       id="青グラデーション-2-3"
       cx="280.13"
       cy="435.5"
       r="44.169998"
       xlink:href="#%E9%9D%92%E3%82%B0%E3%83%A9%E3%83%87%E3%83%BC%E3%82%B7%E3%83%A7%E3%83%B3" /><radialGradient
       id="radialGradient381"
       cx="280.45001"
       cy="299.10001"
       r="44.049999"
       gradientUnits="userSpaceOnUse"><stop
         offset="0"
         stop-color="#00a9eb"
         id="stop371" /><stop
         offset="0.25"
         stop-color="#0089d0"
         id="stop373" /><stop
         offset="0.5"
         stop-color="#0d3893"
         id="stop375" /><stop
         offset="0.75"
         stop-color="#342977"
         id="stop377" /><stop
         offset="1"
         stop-color="#000003"
         id="stop379" /></radialGradient><radialGradient
       id="radial-gradient-6"
       cx="291"
       cy="453.51001"
       r="304.07999"
       gradientUnits="userSpaceOnUse"><stop
         offset="0"
         stop-color="#e2e40a"
         id="stop236-1" /><stop
         offset="0.12"
         stop-color="#d4e12c"
         id="stop238-8" /><stop
         offset="0.44"
         stop-color="#b1d97e"
         id="stop240-7" /><stop
         offset="0.71"
         stop-color="#97d3ba"
         id="stop242-9" /><stop
         offset="0.9"
         stop-color="#87cfdf"
         id="stop244-2" /><stop
         offset="1"
         stop-color="#81ceed"
         id="stop246-0" /></radialGradient><radialGradient
       inkscape:collect="always"
       xlink:href="#%E9%9D%92%E3%82%B0%E3%83%A9%E3%83%87%E3%83%BC%E3%82%B7%E3%83%A7%E3%83%B3"
       id="radialGradient294-23"
       gradientUnits="userSpaceOnUse"
       cx="280.45001"
       cy="299.10001"
       r="44.049999" /><radialGradient
       id="青グラデーション-7"
       cx="280.45001"
       cy="299.10001"
       r="44.049999"
       gradientUnits="userSpaceOnUse"><stop
         offset="0"
         stop-color="#00a9eb"
         id="stop249-5" /><stop
         offset="0.25"
         stop-color="#0089d0"
         id="stop251-9" /><stop
         offset="0.5"
         stop-color="#0d3893"
         id="stop253-2" /><stop
         offset="0.75"
         stop-color="#342977"
         id="stop255-2" /><stop
         offset="1"
         stop-color="#000003"
         id="stop257-8" /></radialGradient><radialGradient
       id="青グラデーション-2-9"
       cx="280.13"
       cy="435.5"
       r="44.169998"
       xlink:href="#%E9%9D%92%E3%82%B0%E3%83%A9%E3%83%87%E3%83%BC%E3%82%B7%E3%83%A7%E3%83%B3" /><radialGradient
       id="radialGradient381-7"
       cx="280.45001"
       cy="299.10001"
       r="44.049999"
       gradientUnits="userSpaceOnUse"><stop
         offset="0"
         stop-color="#00a9eb"
         id="stop371-3" /><stop
         offset="0.25"
         stop-color="#0089d0"
         id="stop373-6" /><stop
         offset="0.5"
         stop-color="#0d3893"
         id="stop375-1" /><stop
         offset="0.75"
         stop-color="#342977"
         id="stop377-2" /><stop
         offset="1"
         stop-color="#000003"
         id="stop379-9" /></radialGradient><radialGradient
       id="radial-gradient-7"
       cx="291"
       cy="453.51001"
       r="304.07999"
       gradientUnits="userSpaceOnUse"><stop
         offset="0"
         stop-color="#e2e40a"
         id="stop236-8" /><stop
         offset="0.12"
         stop-color="#d4e12c"
         id="stop238-4" /><stop
         offset="0.44"
         stop-color="#b1d97e"
         id="stop240-50" /><stop
         offset="0.71"
         stop-color="#97d3ba"
         id="stop242-36" /><stop
         offset="0.9"
         stop-color="#87cfdf"
         id="stop244-1" /><stop
         offset="1"
         stop-color="#81ceed"
         id="stop246-06" /></radialGradient><radialGradient
       inkscape:collect="always"
       xlink:href="#%E9%9D%92%E3%82%B0%E3%83%A9%E3%83%87%E3%83%BC%E3%82%B7%E3%83%A7%E3%83%B3"
       id="radialGradient294-3"
       gradientUnits="userSpaceOnUse"
       cx="280.45001"
       cy="299.10001"
       r="44.049999" /><radialGradient
       id="青グラデーション-20"
       cx="280.45001"
       cy="299.10001"
       r="44.049999"
       gradientUnits="userSpaceOnUse"><stop
         offset="0"
         stop-color="#00a9eb"
         id="stop249-6" /><stop
         offset="0.25"
         stop-color="#0089d0"
         id="stop251-1" /><stop
         offset="0.5"
         stop-color="#0d3893"
         id="stop253-5" /><stop
         offset="0.75"
         stop-color="#342977"
         id="stop255-5" /><stop
         offset="1"
         stop-color="#000003"
         id="stop257-4" /></radialGradient><radialGradient
       id="青グラデーション-2-7"
       cx="280.13"
       cy="435.5"
       r="44.169998"
       xlink:href="#%E9%9D%92%E3%82%B0%E3%83%A9%E3%83%87%E3%83%BC%E3%82%B7%E3%83%A7%E3%83%B3" /><radialGradient
       id="radialGradient381-6"
       cx="280.45001"
       cy="299.10001"
       r="44.049999"
       gradientUnits="userSpaceOnUse"><stop
         offset="0"
         stop-color="#00a9eb"
         id="stop371-5" /><stop
         offset="0.25"
         stop-color="#0089d0"
         id="stop373-69" /><stop
         offset="0.5"
         stop-color="#0d3893"
         id="stop375-3" /><stop
         offset="0.75"
         stop-color="#342977"
         id="stop377-7" /><stop
         offset="1"
         stop-color="#000003"
         id="stop379-4" /></radialGradient><style
       type="text/css"
       id="style464">*{stroke-linejoin: round; stroke-linecap: butt}</style><clipPath
       id="p178d1240f2"><rect
         x="54"
         y="34.56"
         width="334.8"
         height="221.76"
         id="rect476" /></clipPath></defs><g
     inkscape:label="Layer 1"
     inkscape:groupmode="layer"
     id="layer1"><g
       id="g292"
       transform="matrix(0.03831402,0,0,0.03831402,23.103358,99.473839)"><path
         class="cls-1"
         d="m 228.58,770.13 c -6.58,-13.2 -11.58,-27.2 -18.3,-39.81 -1.26,-2.71 -2.51,-5.48 -3.5,-7.71 -2,-4.47 -3.9,-9 -6,-13.71 -0.76,-2.18 -1.94,-5.25 -3.43,-8.94 -4.49,-15.93 -7.72,-32 -6,-47.61 a 70.51,70.51 0 0 1 1.68,-9.33 c 1,-3.18 2.13,-6.28 3.39,-9.32 1.26,-3.04 2.63,-6 4,-9 9.46,-19.81 18.46,-39.81 23.12,-60.62 q 0.79,-4.18 1.24,-8.36 c 0.3,-2.79 0.47,-5.57 0.5,-8.36 a 79.89,79.89 0 0 0 -0.45,-9.55 106.75,106.75 0 0 0 -5.83,-18.72 q -1.92,-4.55 -4.27,-8.91 -2.35,-4.36 -5.11,-8.44 a 61,61 0 0 0 -5.63,-8.38 62.56,62.56 0 0 0 -6.79,-7.23 67.72,67.72 0 0 0 -12.2,-8.74 c -15.75,-8.69 -32.77,-9.33 -49.85,-7.16 -3.42,0.44 -6.84,1 -10.25,1.6 -3,0.71 -6,1.43 -9,2.24 -9.73,3.31 -19.61,6.64 -29.56,9.85 -3.33,1.07 -6.66,2.13 -10,3.21 A 272.66,272.66 0 0 0 0,528.89 c 24,-20 49,-40 80.32,-47.13 2.66,-0.77 5.3,-1.54 7.92,-2.35 10.49,-3.23 20.73,-6.94 30.7,-12.36 q 3.66,-1.4 7.3,-2.92 c 7.27,-3 14.42,-6.42 21.32,-10.15 3.05,-1.95 6,-4 8.85,-6.19 C 180,430.93 186,398.93 190.83,371.44 q 0.05,-4.81 -0.16,-9.6 c -0.94,-21.53 -5.83,-42.63 -11.77,-63.42 -1,-3.46 -2,-6.93 -3.06,-10.46 -1.58,-7.73 -3.53,-15.53 -5.6,-23.38 q -1,-3.93 -2.11,-7.87 C 163,232.89 152,211.89 142,189.89 c -4,-10 -9,-20 -9,-31 1,-13 14,-20 26,-22 -10,5 -28,8 -25,23 8,34 30,60 37.41,94 q 1.19,3.83 2.34,7.62 c 2.29,7.58 4.44,15.08 6.2,22.49 1.38,3.37 2.73,6.51 4.14,9.6 q 1.4,3.09 2.88,6.12 a 61.28,61.28 0 0 0 5,9.72 63.11,63.11 0 0 0 6.57,8.56 c 12.26,12.9 29,20.6 46.2,22.75 a 82,82 0 0 0 10.39,0.62 c 29.56,3.24 52,-18.31 67.32,-41.9 1.71,-2.62 3.34,-5.27 4.88,-7.91 4.74,-6.24 9.1,-12.81 13.33,-19.54 1.42,-2.25 2.82,-4.51 4.23,-6.79 q 2.58,-4.32 5.17,-8.71 l 5.25,-8.9 q 2.43,-4.47 5,-9 2.57,-4.53 5.21,-9 C 388,187.89 425,148.89 476.4,155.93 q 5,-0.73 10.23,-1.21 c 3.61,-0.7 7,-1.28 10.36,-1.78 -3,0.3 -6,0.71 -9.12,1.25 q -5.3,0.79 -10.55,1.74 c -52.34,-6 -90.34,35 -111.81,78.94 q -2.59,4.75 -5.08,9.52 -2.49,4.77 -4.89,9.48 -2.74,5 -5.48,9.84 c -1.62,2.53 -3.26,5 -5,7.43 q -2.66,4.55 -5.16,9.15 a 167.83,167.83 0 0 0 -12.62,29 c -0.65,2.89 -1.17,5.84 -1.54,8.8 -2.6,20.77 1.83,42.82 15,59.16 a 68.18,68.18 0 0 0 34.34,20.25 52.92,52.92 0 0 0 10.53,1.3 139.91,139.91 0 0 0 27.84,-1 c 4.56,-0.55 9.11,-1.23 13.65,-1.93 l 6.84,-1 6.9,-1 c 42.13,-8 82.13,12 119.13,30 7,3 15,0 22,-2 -5,0 -10,4 -15,3 -43,-10 -81,-42 -125.39,-25.82 q -3.61,1 -7.12,2.19 c -2.44,1 -4.78,2 -7.11,3.11 -6.88,3.18 -13.62,6.64 -20.37,9.68 a 153.18,153.18 0 0 0 -15.38,9.26 c -14.67,10.13 -27,23.22 -33.61,40.63 a 90.75,90.75 0 0 0 -4.85,17.08 89.07,89.07 0 0 0 -1.45,17.7 85.73,85.73 0 0 0 0.76,9.85 q 1.43,4.25 3.07,8.43 1.64,4.18 3.44,8.31 c 1.21,2.72 2.49,5.4 3.83,8.05 q 2,4.88 4.26,9.46 c 1.57,3.1 3.25,6.11 5.17,9.22 23.78,36.87 52.78,71.87 95.78,87.87 5,2 9,9 13.07,14.47 q 2.94,2.81 5.93,5.57 -3,-3 -6.15,-6 c -3.85,-5 -7.85,-11 -11.85,-13 -46,-13 -74,-49 -101.92,-82.6 l -8,-8.6 q -3.84,-4.15 -7.66,-8.35 c -2.51,-2.19 -5.08,-4.28 -7.72,-6.22 -13.21,-9.69 -28.21,-15.69 -46.71,-12.19 a 83.53,83.53 0 0 0 -9.37,1.24 c -15.42,3 -29.73,10.31 -38.82,22.22 q -3,3.9 -5.8,7.95 c -1.87,2.7 -3.67,5.45 -5.44,8.25 -14.56,20.3 -22.56,44.3 -35.63,65.28 -1.31,2.62 -2.56,5.26 -3.68,8 a 72.69,72.69 0 0 0 -4.91,17 74,74 0 0 0 -0.67,9.26 c -0.14,12.43 2.54,25.15 5.88,37.85 1.47,3.79 2.46,6.6 3.34,9.12 q 2.56,6.91 5.44,13.56 c 1,2.22 2,4.42 3,6.71 5.64,13.55 12.64,26.55 18.22,40.75 v 0 z"
         transform="translate(0.32,-136.4)"
         id="path265"
         style="fill:url(#radial-gradient)" /><ellipse
         class="cls-2"
         cx="280.45001"
         cy="299.10001"
         rx="45.830002"
         ry="42.189999"
         id="ellipse267"
         style="fill:url(#radialGradient294)" /><path
         class="cls-3"
         d="m 280.13,477.81 c -25.34,0 -46,-19 -46,-42.31 0,-23.31 20.62,-42.31 46,-42.31 25.38,0 46,19 46,42.31 0,23.31 -20.66,42.31 -46,42.31 z m 0,-84.37 c -25.2,0 -45.71,18.87 -45.71,42.06 0,23.19 20.5,42.06 45.71,42.06 25.21,0 45.71,-18.87 45.71,-42.06 0,-23.19 -20.51,-42.06 -45.71,-42.06 z"
         transform="translate(0.32,-136.4)"
         id="path269"
         style="fill:url(#%E9%9D%92%E3%82%B0%E3%83%A9%E3%83%87%E3%83%BC%E3%82%B7%E3%83%A7%E3%83%B3-2)" /></g><g
       id="g292-6"
       transform="matrix(0.03831402,0,0,0.03831402,34.673528,73.206943)"><path
         class="cls-1"
         d="m 228.58,770.13 c -6.58,-13.2 -11.58,-27.2 -18.3,-39.81 -1.26,-2.71 -2.51,-5.48 -3.5,-7.71 -2,-4.47 -3.9,-9 -6,-13.71 -0.76,-2.18 -1.94,-5.25 -3.43,-8.94 -4.49,-15.93 -7.72,-32 -6,-47.61 a 70.51,70.51 0 0 1 1.68,-9.33 c 1,-3.18 2.13,-6.28 3.39,-9.32 1.26,-3.04 2.63,-6 4,-9 9.46,-19.81 18.46,-39.81 23.12,-60.62 q 0.79,-4.18 1.24,-8.36 c 0.3,-2.79 0.47,-5.57 0.5,-8.36 a 79.89,79.89 0 0 0 -0.45,-9.55 106.75,106.75 0 0 0 -5.83,-18.72 q -1.92,-4.55 -4.27,-8.91 -2.35,-4.36 -5.11,-8.44 a 61,61 0 0 0 -5.63,-8.38 62.56,62.56 0 0 0 -6.79,-7.23 67.72,67.72 0 0 0 -12.2,-8.74 c -15.75,-8.69 -32.77,-9.33 -49.85,-7.16 -3.42,0.44 -6.84,1 -10.25,1.6 -3,0.71 -6,1.43 -9,2.24 -9.73,3.31 -19.61,6.64 -29.56,9.85 -3.33,1.07 -6.66,2.13 -10,3.21 A 272.66,272.66 0 0 0 0,528.89 c 24,-20 49,-40 80.32,-47.13 2.66,-0.77 5.3,-1.54 7.92,-2.35 10.49,-3.23 20.73,-6.94 30.7,-12.36 q 3.66,-1.4 7.3,-2.92 c 7.27,-3 14.42,-6.42 21.32,-10.15 3.05,-1.95 6,-4 8.85,-6.19 C 180,430.93 186,398.93 190.83,371.44 q 0.05,-4.81 -0.16,-9.6 c -0.94,-21.53 -5.83,-42.63 -11.77,-63.42 -1,-3.46 -2,-6.93 -3.06,-10.46 -1.58,-7.73 -3.53,-15.53 -5.6,-23.38 q -1,-3.93 -2.11,-7.87 C 163,232.89 152,211.89 142,189.89 c -4,-10 -9,-20 -9,-31 1,-13 14,-20 26,-22 -10,5 -28,8 -25,23 8,34 30,60 37.41,94 q 1.19,3.83 2.34,7.62 c 2.29,7.58 4.44,15.08 6.2,22.49 1.38,3.37 2.73,6.51 4.14,9.6 q 1.4,3.09 2.88,6.12 a 61.28,61.28 0 0 0 5,9.72 63.11,63.11 0 0 0 6.57,8.56 c 12.26,12.9 29,20.6 46.2,22.75 a 82,82 0 0 0 10.39,0.62 c 29.56,3.24 52,-18.31 67.32,-41.9 1.71,-2.62 3.34,-5.27 4.88,-7.91 4.74,-6.24 9.1,-12.81 13.33,-19.54 1.42,-2.25 2.82,-4.51 4.23,-6.79 q 2.58,-4.32 5.17,-8.71 l 5.25,-8.9 q 2.43,-4.47 5,-9 2.57,-4.53 5.21,-9 C 388,187.89 425,148.89 476.4,155.93 q 5,-0.73 10.23,-1.21 c 3.61,-0.7 7,-1.28 10.36,-1.78 -3,0.3 -6,0.71 -9.12,1.25 q -5.3,0.79 -10.55,1.74 c -52.34,-6 -90.34,35 -111.81,78.94 q -2.59,4.75 -5.08,9.52 -2.49,4.77 -4.89,9.48 -2.74,5 -5.48,9.84 c -1.62,2.53 -3.26,5 -5,7.43 q -2.66,4.55 -5.16,9.15 a 167.83,167.83 0 0 0 -12.62,29 c -0.65,2.89 -1.17,5.84 -1.54,8.8 -2.6,20.77 1.83,42.82 15,59.16 a 68.18,68.18 0 0 0 34.34,20.25 52.92,52.92 0 0 0 10.53,1.3 139.91,139.91 0 0 0 27.84,-1 c 4.56,-0.55 9.11,-1.23 13.65,-1.93 l 6.84,-1 6.9,-1 c 42.13,-8 82.13,12 119.13,30 7,3 15,0 22,-2 -5,0 -10,4 -15,3 -43,-10 -81,-42 -125.39,-25.82 q -3.61,1 -7.12,2.19 c -2.44,1 -4.78,2 -7.11,3.11 -6.88,3.18 -13.62,6.64 -20.37,9.68 a 153.18,153.18 0 0 0 -15.38,9.26 c -14.67,10.13 -27,23.22 -33.61,40.63 a 90.75,90.75 0 0 0 -4.85,17.08 89.07,89.07 0 0 0 -1.45,17.7 85.73,85.73 0 0 0 0.76,9.85 q 1.43,4.25 3.07,8.43 1.64,4.18 3.44,8.31 c 1.21,2.72 2.49,5.4 3.83,8.05 q 2,4.88 4.26,9.46 c 1.57,3.1 3.25,6.11 5.17,9.22 23.78,36.87 52.78,71.87 95.78,87.87 5,2 9,9 13.07,14.47 q 2.94,2.81 5.93,5.57 -3,-3 -6.15,-6 c -3.85,-5 -7.85,-11 -11.85,-13 -46,-13 -74,-49 -101.92,-82.6 l -8,-8.6 q -3.84,-4.15 -7.66,-8.35 c -2.51,-2.19 -5.08,-4.28 -7.72,-6.22 -13.21,-9.69 -28.21,-15.69 -46.71,-12.19 a 83.53,83.53 0 0 0 -9.37,1.24 c -15.42,3 -29.73,10.31 -38.82,22.22 q -3,3.9 -5.8,7.95 c -1.87,2.7 -3.67,5.45 -5.44,8.25 -14.56,20.3 -22.56,44.3 -35.63,65.28 -1.31,2.62 -2.56,5.26 -3.68,8 a 72.69,72.69 0 0 0 -4.91,17 74,74 0 0 0 -0.67,9.26 c -0.14,12.43 2.54,25.15 5.88,37.85 1.47,3.79 2.46,6.6 3.34,9.12 q 2.56,6.91 5.44,13.56 c 1,2.22 2,4.42 3,6.71 5.64,13.55 12.64,26.55 18.22,40.75 v 0 z"
         transform="translate(0.32,-136.4)"
         id="path265-0"
         style="fill:url(#radial-gradient-3);stroke:#231815" /><ellipse
         class="cls-2"
         cx="280.45001"
         cy="299.10001"
         rx="45.830002"
         ry="42.189999"
         id="ellipse267-6"
         style="fill:url(#radialGradient294-2)" /><path
         class="cls-3"
         d="m 280.13,477.81 c -25.34,0 -46,-19 -46,-42.31 0,-23.31 20.62,-42.31 46,-42.31 25.38,0 46,19 46,42.31 0,23.31 -20.66,42.31 -46,42.31 z m 0,-84.37 c -25.2,0 -45.71,18.87 -45.71,42.06 0,23.19 20.5,42.06 45.71,42.06 25.21,0 45.71,-18.87 45.71,-42.06 0,-23.19 -20.51,-42.06 -45.71,-42.06 z"
         transform="translate(0.32,-136.4)"
         id="path269-2"
         style="fill:url(#%E9%9D%92%E3%82%B0%E3%83%A9%E3%83%87%E3%83%BC%E3%82%B7%E3%83%A7%E3%83%B3-2-3)" /></g><g
       id="g292-5"
       transform="matrix(0.03831402,0,0,0.03831402,49.810467,110.1688)"><path
         class="cls-1"
         d="m 228.58,770.13 c -6.58,-13.2 -11.58,-27.2 -18.3,-39.81 -1.26,-2.71 -2.51,-5.48 -3.5,-7.71 -2,-4.47 -3.9,-9 -6,-13.71 -0.76,-2.18 -1.94,-5.25 -3.43,-8.94 -4.49,-15.93 -7.72,-32 -6,-47.61 a 70.51,70.51 0 0 1 1.68,-9.33 c 1,-3.18 2.13,-6.28 3.39,-9.32 1.26,-3.04 2.63,-6 4,-9 9.46,-19.81 18.46,-39.81 23.12,-60.62 q 0.79,-4.18 1.24,-8.36 c 0.3,-2.79 0.47,-5.57 0.5,-8.36 a 79.89,79.89 0 0 0 -0.45,-9.55 106.75,106.75 0 0 0 -5.83,-18.72 q -1.92,-4.55 -4.27,-8.91 -2.35,-4.36 -5.11,-8.44 a 61,61 0 0 0 -5.63,-8.38 62.56,62.56 0 0 0 -6.79,-7.23 67.72,67.72 0 0 0 -12.2,-8.74 c -15.75,-8.69 -32.77,-9.33 -49.85,-7.16 -3.42,0.44 -6.84,1 -10.25,1.6 -3,0.71 -6,1.43 -9,2.24 -9.73,3.31 -19.61,6.64 -29.56,9.85 -3.33,1.07 -6.66,2.13 -10,3.21 A 272.66,272.66 0 0 0 0,528.89 c 24,-20 49,-40 80.32,-47.13 2.66,-0.77 5.3,-1.54 7.92,-2.35 10.49,-3.23 20.73,-6.94 30.7,-12.36 q 3.66,-1.4 7.3,-2.92 c 7.27,-3 14.42,-6.42 21.32,-10.15 3.05,-1.95 6,-4 8.85,-6.19 C 180,430.93 186,398.93 190.83,371.44 q 0.05,-4.81 -0.16,-9.6 c -0.94,-21.53 -5.83,-42.63 -11.77,-63.42 -1,-3.46 -2,-6.93 -3.06,-10.46 -1.58,-7.73 -3.53,-15.53 -5.6,-23.38 q -1,-3.93 -2.11,-7.87 C 163,232.89 152,211.89 142,189.89 c -4,-10 -9,-20 -9,-31 1,-13 14,-20 26,-22 -10,5 -28,8 -25,23 8,34 30,60 37.41,94 q 1.19,3.83 2.34,7.62 c 2.29,7.58 4.44,15.08 6.2,22.49 1.38,3.37 2.73,6.51 4.14,9.6 q 1.4,3.09 2.88,6.12 a 61.28,61.28 0 0 0 5,9.72 63.11,63.11 0 0 0 6.57,8.56 c 12.26,12.9 29,20.6 46.2,22.75 a 82,82 0 0 0 10.39,0.62 c 29.56,3.24 52,-18.31 67.32,-41.9 1.71,-2.62 3.34,-5.27 4.88,-7.91 4.74,-6.24 9.1,-12.81 13.33,-19.54 1.42,-2.25 2.82,-4.51 4.23,-6.79 q 2.58,-4.32 5.17,-8.71 l 5.25,-8.9 q 2.43,-4.47 5,-9 2.57,-4.53 5.21,-9 C 388,187.89 425,148.89 476.4,155.93 q 5,-0.73 10.23,-1.21 c 3.61,-0.7 7,-1.28 10.36,-1.78 -3,0.3 -6,0.71 -9.12,1.25 q -5.3,0.79 -10.55,1.74 c -52.34,-6 -90.34,35 -111.81,78.94 q -2.59,4.75 -5.08,9.52 -2.49,4.77 -4.89,9.48 -2.74,5 -5.48,9.84 c -1.62,2.53 -3.26,5 -5,7.43 q -2.66,4.55 -5.16,9.15 a 167.83,167.83 0 0 0 -12.62,29 c -0.65,2.89 -1.17,5.84 -1.54,8.8 -2.6,20.77 1.83,42.82 15,59.16 a 68.18,68.18 0 0 0 34.34,20.25 52.92,52.92 0 0 0 10.53,1.3 139.91,139.91 0 0 0 27.84,-1 c 4.56,-0.55 9.11,-1.23 13.65,-1.93 l 6.84,-1 6.9,-1 c 42.13,-8 82.13,12 119.13,30 7,3 15,0 22,-2 -5,0 -10,4 -15,3 -43,-10 -81,-42 -125.39,-25.82 q -3.61,1 -7.12,2.19 c -2.44,1 -4.78,2 -7.11,3.11 -6.88,3.18 -13.62,6.64 -20.37,9.68 a 153.18,153.18 0 0 0 -15.38,9.26 c -14.67,10.13 -27,23.22 -33.61,40.63 a 90.75,90.75 0 0 0 -4.85,17.08 89.07,89.07 0 0 0 -1.45,17.7 85.73,85.73 0 0 0 0.76,9.85 q 1.43,4.25 3.07,8.43 1.64,4.18 3.44,8.31 c 1.21,2.72 2.49,5.4 3.83,8.05 q 2,4.88 4.26,9.46 c 1.57,3.1 3.25,6.11 5.17,9.22 23.78,36.87 52.78,71.87 95.78,87.87 5,2 9,9 13.07,14.47 q 2.94,2.81 5.93,5.57 -3,-3 -6.15,-6 c -3.85,-5 -7.85,-11 -11.85,-13 -46,-13 -74,-49 -101.92,-82.6 l -8,-8.6 q -3.84,-4.15 -7.66,-8.35 c -2.51,-2.19 -5.08,-4.28 -7.72,-6.22 -13.21,-9.69 -28.21,-15.69 -46.71,-12.19 a 83.53,83.53 0 0 0 -9.37,1.24 c -15.42,3 -29.73,10.31 -38.82,22.22 q -3,3.9 -5.8,7.95 c -1.87,2.7 -3.67,5.45 -5.44,8.25 -14.56,20.3 -22.56,44.3 -35.63,65.28 -1.31,2.62 -2.56,5.26 -3.68,8 a 72.69,72.69 0 0 0 -4.91,17 74,74 0 0 0 -0.67,9.26 c -0.14,12.43 2.54,25.15 5.88,37.85 1.47,3.79 2.46,6.6 3.34,9.12 q 2.56,6.91 5.44,13.56 c 1,2.22 2,4.42 3,6.71 5.64,13.55 12.64,26.55 18.22,40.75 v 0 z"
         transform="translate(0.32,-136.4)"
         id="path265-2"
         style="fill:url(#radial-gradient-7);stroke:#231815" /><ellipse
         class="cls-2"
         cx="280.45001"
         cy="299.10001"
         rx="45.830002"
         ry="42.189999"
         id="ellipse267-5"
         style="fill:url(#radialGradient294-3)" /><path
         class="cls-3"
         d="m 280.13,477.81 c -25.34,0 -46,-19 -46,-42.31 0,-23.31 20.62,-42.31 46,-42.31 25.38,0 46,19 46,42.31 0,23.31 -20.66,42.31 -46,42.31 z m 0,-84.37 c -25.2,0 -45.71,18.87 -45.71,42.06 0,23.19 20.5,42.06 45.71,42.06 25.21,0 45.71,-18.87 45.71,-42.06 0,-23.19 -20.51,-42.06 -45.71,-42.06 z"
         transform="translate(0.32,-136.4)"
         id="path269-47"
         style="fill:url(#%E9%9D%92%E3%82%B0%E3%83%A9%E3%83%87%E3%83%BC%E3%82%B7%E3%83%A7%E3%83%B3-2-7)" /></g><g
       id="g292-3"
       transform="matrix(0.03831402,0,0,0.03831402,69.95275,80.110098)"><path
         class="cls-1"
         d="m 228.58,770.13 c -6.58,-13.2 -11.58,-27.2 -18.3,-39.81 -1.26,-2.71 -2.51,-5.48 -3.5,-7.71 -2,-4.47 -3.9,-9 -6,-13.71 -0.76,-2.18 -1.94,-5.25 -3.43,-8.94 -4.49,-15.93 -7.72,-32 -6,-47.61 a 70.51,70.51 0 0 1 1.68,-9.33 c 1,-3.18 2.13,-6.28 3.39,-9.32 1.26,-3.04 2.63,-6 4,-9 9.46,-19.81 18.46,-39.81 23.12,-60.62 q 0.79,-4.18 1.24,-8.36 c 0.3,-2.79 0.47,-5.57 0.5,-8.36 a 79.89,79.89 0 0 0 -0.45,-9.55 106.75,106.75 0 0 0 -5.83,-18.72 q -1.92,-4.55 -4.27,-8.91 -2.35,-4.36 -5.11,-8.44 a 61,61 0 0 0 -5.63,-8.38 62.56,62.56 0 0 0 -6.79,-7.23 67.72,67.72 0 0 0 -12.2,-8.74 c -15.75,-8.69 -32.77,-9.33 -49.85,-7.16 -3.42,0.44 -6.84,1 -10.25,1.6 -3,0.71 -6,1.43 -9,2.24 -9.73,3.31 -19.61,6.64 -29.56,9.85 -3.33,1.07 -6.66,2.13 -10,3.21 A 272.66,272.66 0 0 0 0,528.89 c 24,-20 49,-40 80.32,-47.13 2.66,-0.77 5.3,-1.54 7.92,-2.35 10.49,-3.23 20.73,-6.94 30.7,-12.36 q 3.66,-1.4 7.3,-2.92 c 7.27,-3 14.42,-6.42 21.32,-10.15 3.05,-1.95 6,-4 8.85,-6.19 C 180,430.93 186,398.93 190.83,371.44 q 0.05,-4.81 -0.16,-9.6 c -0.94,-21.53 -5.83,-42.63 -11.77,-63.42 -1,-3.46 -2,-6.93 -3.06,-10.46 -1.58,-7.73 -3.53,-15.53 -5.6,-23.38 q -1,-3.93 -2.11,-7.87 C 163,232.89 152,211.89 142,189.89 c -4,-10 -9,-20 -9,-31 1,-13 14,-20 26,-22 -10,5 -28,8 -25,23 8,34 30,60 37.41,94 q 1.19,3.83 2.34,7.62 c 2.29,7.58 4.44,15.08 6.2,22.49 1.38,3.37 2.73,6.51 4.14,9.6 q 1.4,3.09 2.88,6.12 a 61.28,61.28 0 0 0 5,9.72 63.11,63.11 0 0 0 6.57,8.56 c 12.26,12.9 29,20.6 46.2,22.75 a 82,82 0 0 0 10.39,0.62 c 29.56,3.24 52,-18.31 67.32,-41.9 1.71,-2.62 3.34,-5.27 4.88,-7.91 4.74,-6.24 9.1,-12.81 13.33,-19.54 1.42,-2.25 2.82,-4.51 4.23,-6.79 q 2.58,-4.32 5.17,-8.71 l 5.25,-8.9 q 2.43,-4.47 5,-9 2.57,-4.53 5.21,-9 C 388,187.89 425,148.89 476.4,155.93 q 5,-0.73 10.23,-1.21 c 3.61,-0.7 7,-1.28 10.36,-1.78 -3,0.3 -6,0.71 -9.12,1.25 q -5.3,0.79 -10.55,1.74 c -52.34,-6 -90.34,35 -111.81,78.94 q -2.59,4.75 -5.08,9.52 -2.49,4.77 -4.89,9.48 -2.74,5 -5.48,9.84 c -1.62,2.53 -3.26,5 -5,7.43 q -2.66,4.55 -5.16,9.15 a 167.83,167.83 0 0 0 -12.62,29 c -0.65,2.89 -1.17,5.84 -1.54,8.8 -2.6,20.77 1.83,42.82 15,59.16 a 68.18,68.18 0 0 0 34.34,20.25 52.92,52.92 0 0 0 10.53,1.3 139.91,139.91 0 0 0 27.84,-1 c 4.56,-0.55 9.11,-1.23 13.65,-1.93 l 6.84,-1 6.9,-1 c 42.13,-8 82.13,12 119.13,30 7,3 15,0 22,-2 -5,0 -10,4 -15,3 -43,-10 -81,-42 -125.39,-25.82 q -3.61,1 -7.12,2.19 c -2.44,1 -4.78,2 -7.11,3.11 -6.88,3.18 -13.62,6.64 -20.37,9.68 a 153.18,153.18 0 0 0 -15.38,9.26 c -14.67,10.13 -27,23.22 -33.61,40.63 a 90.75,90.75 0 0 0 -4.85,17.08 89.07,89.07 0 0 0 -1.45,17.7 85.73,85.73 0 0 0 0.76,9.85 q 1.43,4.25 3.07,8.43 1.64,4.18 3.44,8.31 c 1.21,2.72 2.49,5.4 3.83,8.05 q 2,4.88 4.26,9.46 c 1.57,3.1 3.25,6.11 5.17,9.22 23.78,36.87 52.78,71.87 95.78,87.87 5,2 9,9 13.07,14.47 q 2.94,2.81 5.93,5.57 -3,-3 -6.15,-6 c -3.85,-5 -7.85,-11 -11.85,-13 -46,-13 -74,-49 -101.92,-82.6 l -8,-8.6 q -3.84,-4.15 -7.66,-8.35 c -2.51,-2.19 -5.08,-4.28 -7.72,-6.22 -13.21,-9.69 -28.21,-15.69 -46.71,-12.19 a 83.53,83.53 0 0 0 -9.37,1.24 c -15.42,3 -29.73,10.31 -38.82,22.22 q -3,3.9 -5.8,7.95 c -1.87,2.7 -3.67,5.45 -5.44,8.25 -14.56,20.3 -22.56,44.3 -35.63,65.28 -1.31,2.62 -2.56,5.26 -3.68,8 a 72.69,72.69 0 0 0 -4.91,17 74,74 0 0 0 -0.67,9.26 c -0.14,12.43 2.54,25.15 5.88,37.85 1.47,3.79 2.46,6.6 3.34,9.12 q 2.56,6.91 5.44,13.56 c 1,2.22 2,4.42 3,6.71 5.64,13.55 12.64,26.55 18.22,40.75 v 0 z"
         transform="translate(0.32,-136.4)"
         id="path265-1"
         style="fill:url(#radial-gradient-6);stroke:#231815" /><ellipse
         class="cls-2"
         cx="280.45001"
         cy="299.10001"
         rx="45.830002"
         ry="42.189999"
         id="ellipse267-9"
         style="fill:url(#radialGradient294-23)" /><path
         class="cls-3"
         d="m 280.13,477.81 c -25.34,0 -46,-19 -46,-42.31 0,-23.31 20.62,-42.31 46,-42.31 25.38,0 46,19 46,42.31 0,23.31 -20.66,42.31 -46,42.31 z m 0,-84.37 c -25.2,0 -45.71,18.87 -45.71,42.06 0,23.19 20.5,42.06 45.71,42.06 25.21,0 45.71,-18.87 45.71,-42.06 0,-23.19 -20.51,-42.06 -45.71,-42.06 z"
         transform="translate(0.32,-136.4)"
         id="path269-4"
         style="fill:url(#%E9%9D%92%E3%82%B0%E3%83%A9%E3%83%87%E3%83%BC%E3%82%B7%E3%83%A7%E3%83%B3-2-9)" /></g><path
       style="fill:none;stroke:#939393;stroke-width:0.275665;stroke-opacity:1"
       d="m 60.533839,65.580023 v 18.355281 l 0.579638,3.671058 0.579642,-3.671058 V 65.580023 Z"
       id="path792" /><path
       style="fill:none;stroke:#7a7a7a;stroke-width:0.219076;stroke-opacity:1"
       d="M 61.113477,65.580023 V 58.624338 H 78.502689"
       id="path2482"
       sodipodi:nodetypes="ccc" /><path
       style="fill:none;stroke:#7a7a7a;stroke-width:0.219076;stroke-opacity:1"
       d="M 27.516667,70.908333 27.49433,57.465057 h 51.008359"
       id="path2538"
       sodipodi:nodetypes="ccc" /><text
       xml:space="preserve"
       style="font-style:normal;font-variant:normal;font-weight:normal;font-stretch:normal;font-size:4.23333px;font-family:sans-serif;-inkscape-font-specification:'sans-serif, Normal';font-variant-ligatures:normal;font-variant-caps:normal;font-variant-numeric:normal;font-variant-east-asian:normal;fill:none;stroke:#939393;stroke-width:0.219076;stroke-opacity:1"
       x="6.2547503"
       y="71.395164"
       id="text2594"><tspan
         sodipodi:role="line"
         id="tspan2592"
         style="font-style:normal;font-variant:normal;font-weight:normal;font-stretch:normal;font-size:4.23333px;font-family:sans-serif;-inkscape-font-specification:'sans-serif, Normal';font-variant-ligatures:normal;font-variant-caps:normal;font-variant-numeric:normal;font-variant-east-asian:normal;fill:#000000;stroke:none;stroke-width:0.219076"
         x="6.2547503"
         y="71.395164">reference</tspan></text><path
       style="fill:none;stroke:#666666;stroke-width:0.219076;stroke-opacity:1"
       d="m 78.502689,56.885416 v 2.318562 l 1.738923,-1.159281 z"
       id="path2746" /><path
       style="fill:none;stroke:#666666;stroke-width:0.219076;stroke-opacity:1"
       d="m 80.241612,58.044697 h 4.637125"
       id="path2910" /><text
       xml:space="preserve"
       style="font-style:normal;font-variant:normal;font-weight:normal;font-stretch:normal;font-size:4.23333px;font-family:sans-serif;-inkscape-font-specification:'sans-serif, Normal';font-variant-ligatures:normal;font-variant-caps:normal;font-variant-numeric:normal;font-variant-east-asian:normal;fill:none;stroke:#666666;stroke-width:0.219076;stroke-opacity:1"
       x="85.756752"
       y="58.352268"
       id="text3111"><tspan
         sodipodi:role="line"
         id="tspan3109"
         style="font-style:normal;font-variant:normal;font-weight:normal;font-stretch:normal;font-size:4.23333px;font-family:sans-serif;-inkscape-font-specification:'sans-serif, Normal';font-variant-ligatures:normal;font-variant-caps:normal;font-variant-numeric:normal;font-variant-east-asian:normal;fill:#000000;stroke:none;stroke-width:0.219076"
         x="85.756752"
         y="58.352268">output</tspan></text><text
       xml:space="preserve"
       style="font-size:4.23333px;font-family:sans-serif;-inkscape-font-specification:'sans-serif, Normal';fill:#1a1a1a;stroke-width:0.499999"
       x="102.01912"
       y="168.35435"
       id="text575"><tspan
         sodipodi:role="line"
         id="tspan573"
         style="fill:#1a1a1a;stroke-width:0.5"
         x="102.01912"
         y="168.35435">µV</tspan></text><path
       style="fill:none;stroke:#000000;stroke-width:0.499999;marker-start:url(#Arrow1);marker-end:url(#Arrow1)"
       d="m 108.99354,158.71717 v 13.22917 h 7.9375"
       id="path733" /><text
       xml:space="preserve"
       style="font-size:4.23333px;font-family:sans-serif;-inkscape-font-specification:'sans-serif, Normal';fill:none;stroke:#000000;stroke-width:0.499999"
       x="110.31644"
       y="177.23801"
       id="text1640"><tspan
         sodipodi:role="line"
         id="tspan1638"
         style="fill:#000000;stroke:none;stroke-width:0.5"
         x="110.31644"
         y="177.23801">t</tspan></text><path
       style="fill:none;stroke:#c8b7b7;stroke-width:0.499999"
       d="m 13.229167,80.697916 c 0,0 31.018672,-31.993062 96.572913,-13.229167"
       id="path1809" /><g
       id="figure_1"
       transform="matrix(0.22901703,0,0,0.22901703,8.7808858,136.48637)"
       style="fill:none"><g
         id="patch_1"
         style="fill:none"><path
           d="M 0,288 H 432 V 0 H 0 Z"
           style="fill:none"
           id="path468" /></g><g
         id="axes_1"
         style="fill:none"><g
           id="line2d_1"
           style="fill:none"><path
             d="m 69.218182,100.48234 0.304668,-11.904091 0.609337,13.626031 0.304668,16.42409 0.304668,2.14986 0.304669,-16.60004 0.304668,1.37412 0.304668,9.27245 0.304669,-0.53169 0.304668,-5.85527 0.304668,-2.41541 0.609337,-18.330119 0.304668,1.647603 0.304668,-3.483034 0.609337,16.33361 0.304668,-17.360577 0.609337,-9.811773 0.304668,-5.821694 0.304669,7.16499 0.304668,0.490525 0.304668,4.051725 0.304668,0.39324 0.304669,2.40062 0.914005,15.259985 0.304668,0.802793 0.304668,0.374726 0.609337,-11.278637 0.304668,-1.082126 0.304668,0.266988 0.304669,-3.098319 0.304668,-11.405662 0.304668,3.798801 0.304669,19.015681 0.304668,-4.254578 0.304668,3.819784 0.304669,31.296768 0.304668,3.12877 0.304668,-9.08976 0.304669,-0.89849 0.304668,-6.15179 0.304668,5.0213 0.304668,1.55842 0.304669,-4.61363 0.304668,0.38927 0.304668,8.38971 0.304669,17.91031 0.609336,-11.60388 0.304669,13.57677 0.609336,-36.32792 0.304668,0.92983 0.304669,3.19261 0.304668,-4.00784 0.304668,-8.03203 0.304669,5.06483 0.304668,-2.27585 0.304668,-0.69341 0.609337,30.39493 0.304668,2.45381 0.304669,0.6466 0.304668,5.39963 0.304668,0.26533 0.304668,-7.70941 0.304669,-3.76313 0.304668,-1.77782 0.304668,4.56382 0.304669,8.36351 0.304668,-0.0393 0.304668,-1.27413 0.609337,28.02769 0.304668,-3.9221 0.304668,2.8026 0.304669,10.19552 0.304668,-2.38891 0.304668,15.13226 0.304669,7.26603 0.304668,-11.66231 0.304668,-4.95212 0.609337,-26.7249 0.304668,6.3758 0.304669,-7.29749 0.304668,-21.72595 0.304668,2.47586 0.304668,12.40324 0.304669,-2.2452 0.304668,0.36479 0.304668,1.54397 0.304669,6.51266 0.304668,9.55676 0.609337,-27.34501 0.304669,8.82791 0.30467,-5.69325 0.60933,-21.63132 0.30467,-0.121 0.30467,8.33655 0.60934,-20.98028 0.30467,-2.17969 0.30466,-14.399778 0.30467,-7.729679 0.30467,3.127285 0.60934,23.878712 0.30466,7.37757 0.30467,-3.75847 0.30467,-11.407262 0.30467,3.381442 0.91401,-15.242963 0.30466,-8.236725 0.30467,7.114111 0.30467,-3.480732 0.30467,2.884276 0.30467,17.272343 0.60933,-16.118588 0.91401,53.688568 0.60933,-14.1753 0.30467,6.58523 0.60934,-9.93077 0.30467,-0.86733 0.30467,-5.63968 0.30466,0.3745 0.30467,8.07845 0.60934,29.1213 0.30467,3.95698 0.30467,-2.17548 0.30466,5.14199 0.30467,2.09478 0.30467,-14.16992 0.60934,-33.56404 0.30467,-5.36419 0.30466,-18.980903 0.60934,-16.322014 0.30467,-26.079399 0.30467,-2.0222 0.30467,5.447869 0.30466,-6.376853 0.30467,5.020203 0.30467,8.340866 0.30467,1.843358 0.30467,9.114154 0.30467,17.77932 0.30466,-0.541855 0.30467,-0.284699 0.30467,18.594503 0.30467,0.47321 0.30467,-8.962916 0.30467,3.211165 0.60933,28.044101 0.30467,-9.66635 0.30467,-2.87611 0.60933,15.285 0.30467,9.01734 0.30467,-12.74163 0.30467,-4.14479 0.60934,20.41935 0.30467,2.19816 0.60933,-18.13354 0.30467,-8.15798 0.30467,-2.14558 0.30467,4.51359 0.30466,-12.32182 0.30467,-7.62847 0.30467,4.18499 0.30467,-7.243991 0.30467,7.428491 0.30467,2.18095 0.30466,-21.502922 0.60934,38.897072 0.30467,-14.70997 0.30467,6.25805 0.914,43.30592 0.30467,0.69324 0.60934,-18.25886 0.30467,0.32842 0.30466,15.05293 0.30467,7.27462 0.30467,-3.0784 0.30467,9.46523 0.60934,36.11043 0.30466,0.49997 0.30467,6.51949 0.30467,14.61041 0.30467,-3.72937 0.30467,7.63858 0.30467,13.42614 0.60933,-55.30596 0.30467,-8.52274 0.60934,-29.07459 0.30466,-1.81994 0.30467,-1.12764 0.60934,6.82045 0.30467,9.15989 0.30467,19.76194 0.30466,-2.14205 0.30467,-26.76697 0.30467,-9.63578 0.30467,9.17259 0.30467,-10.91103 0.30467,-20.97929 0.30467,12.11158 0.60933,-12.70355 0.30467,28.45173 0.30467,-25.36367 0.30467,-9.70143 0.30466,19.33656 0.30467,-11.67576 0.30467,-2.51106 0.30467,-5.62368 0.30467,-0.47322 0.30467,-0.83466 0.30466,-12.66855 0.30467,-5.059467 0.30467,0.682046 0.30467,0.266885 0.60934,-20.426805 0.30466,6.830951 0.30467,1.977947 0.30467,-1.01605 0.30467,8.05583 0.30467,1.042317 0.30467,7.469726 0.30466,25.29026 0.30467,14.52941 0.30467,-2.99828 0.30467,-6.60995 0.60934,33.90602 0.30466,-5.41338 0.60934,12.82831 0.30467,-12.46406 0.914,-74.088875 0.30467,-6.376604 0.30467,5.288189 0.30467,8.730355 0.30467,3.626679 0.30467,-8.84799 0.30466,-18.528265 0.30467,-4.652322 0.30467,8.279496 0.30467,-1.209989 0.30467,16.441891 0.30466,-3.93113 0.30467,-27.874034 0.30467,8.308689 0.60934,27.536652 0.30467,1.042525 0.30466,2.564807 0.30467,9.775696 0.30467,-6.4254 0.60934,17.87585 0.60933,14.27317 0.30467,5.56877 0.30467,37.46802 0.30467,-10.58437 0.30467,-39.97905 0.30467,-6.82582 0.30466,-3.37692 0.30467,0.887 0.60934,2.68497 0.60934,-27.78049 0.30466,20.77808 0.30467,29.94195 0.30467,-9.67678 0.30467,-15.74449 0.30467,10.31684 0.30467,-3.77578 0.30466,1.76676 0.30467,22.09656 0.30467,4.1855 0.30467,-4.45114 0.60934,-15.48663 0.30466,-3.50641 0.30467,-8.7102 0.30467,19.65984 0.30467,-5.65785 0.30467,-25.27587 0.30467,31.48882 0.30466,-2.04264 0.30467,-15.85684 0.30467,25.98472 0.30467,-12.01677 0.30467,-37.689155 0.30467,-5.00465 0.30466,23.695035 0.30467,2.27374 0.30467,-10.40881 0.30467,14.01275 0.30467,0.58496 0.30467,-14.11737 0.60933,-13.673875 0.30467,5.568265 0.60934,3.45526 0.30466,10.92763 0.30467,-3.96414 0.30467,0.47814 0.30467,19.50395 0.30467,11.3962 0.30467,-34.09848 0.30467,-21.338349 0.30466,18.736949 0.30467,-7.722901 0.30467,-3.63953 0.30467,9.797721 0.30467,-1.32825 0.30466,0.90983 0.30467,-12.788037 0.30467,-0.291669 0.30467,14.692916 0.30467,7.555 0.30467,10.39317 0.30466,-7.93349 0.30467,0.84672 0.30467,11.75457 0.30467,-0.215 0.30467,15.00025 0.30467,-2.51891 0.30466,-7.78395 0.30467,2.8105 0.30467,-5.48081 0.30467,18.45733 0.30467,-1.71108 0.30467,-18.19945 0.30466,4.45047 0.30467,7.01644 0.30467,25.47426 0.30467,11.12718 0.30467,-14.4971 0.60933,22.2951 0.30467,-9.17537 0.60934,14.82501 0.30467,-6.66882 0.30467,-0.74286 0.30466,-13.56602 0.30467,0.45646 0.30467,6.02055 0.30467,-8.70945 0.30467,-1.21467 0.30467,-7.54791 0.30466,18.40714 0.60934,6.06941 0.30467,12.51597 0.30467,-45.71138 0.30467,-18.44548 0.30466,4.17376 0.60934,64.9904 0.30467,-62.17691 0.30467,-11.6353 0.30466,12.18488 0.30467,-7.1949 0.30467,19.48807 0.60934,-24.52402 0.30467,10.78712 0.30466,5.95589 0.30467,9.48923 0.30467,3.00746 0.30467,0.14524 0.60934,-23.0635 0.30466,14.00089 0.30467,-3.24893 0.30467,-0.19973 0.30467,30.30043 0.60934,-37.31198 0.30466,39.60025 0.30467,-0.50958 0.30467,-14.78885 0.30467,-5.85969 0.30467,-16.92344 0.30467,-3.39509 0.30466,-12.02135 0.30467,3.64476 0.30467,26.90752 0.30467,-5.42489 0.30467,-3.29552 0.30467,0.37524 0.30466,-15.61511 0.30467,7.01244 0.30467,-1.33926 0.30467,-33.82226 0.30467,-17.146976 0.30467,30.492486 0.30466,-12.50233 0.30467,9.36997 0.30467,61.4511 0.30467,-43.43468 0.30467,-19.73784 0.30467,23.83284 0.30466,-11.01948 0.30467,3.71778 0.30467,-10.652 0.30467,-4.00307 0.60934,-26.630794 0.30466,3.727647 0.30467,-20.804473 0.60934,19.615858 0.30467,-6.191394 0.30467,16.162621 0.30466,4.944715 0.30467,0.0187 0.60934,21.96338 0.30467,9.31933 0.30467,23.4244 0.30466,2.21951 0.60934,-24.31897 0.30467,-6.77321 0.30467,5.41252 0.30466,-13.53196 0.30467,1.84522 0.30467,16.47959 0.30467,-9.55881 0.30467,0.0374 0.30467,-1.58611 0.30466,-2.61319 0.30467,14.72183 0.30467,0.99461 0.30467,12.05029 0.30467,-1.56289 0.30467,-47.94577 0.30466,-1.44157 0.30467,24.2522 0.30467,-20.78661 0.30467,-3.50621 0.30467,2.85692 0.30467,-15.375451 0.30466,1.323102 0.30467,-0.53941 0.30467,-11.436524 0.30467,-3.572718 0.60934,18.429582 0.60933,18.912479 0.30467,1.63697 0.30467,17.99606 0.30467,5.64424 0.30467,-26.77459 0.30466,5.57388 0.30467,43.40438 0.30467,1.2728 0.30467,-34.23601 0.30467,5.44156 0.30467,31.17809 0.30466,-15.10772 0.30467,-34.93335 0.60934,17.72181 0.30467,-13.26003 0.30467,15.58397 0.30466,26.25614 0.60934,5.98032 0.60934,24.35848 0.30467,4.27401 0.30466,0.4617 0.30467,-14.91677 0.30467,3.27937 0.30467,7.49932 0.30467,-12.28426 0.30466,13.72752 0.30467,-7.02446 0.30467,7.08469 0.30467,1.93621 0.30467,-28.35398 0.914,31.32693 0.30467,-6.93893 0.30467,-25.74313 0.30467,9.95697 0.30467,21.65276 0.30466,-9.74395 0.30467,11.55098 0.30467,22.66205 0.30467,-18.60018 0.914,20.18841 0.30467,15.30219 0.30467,-43.50901 0.30467,-19.16062 0.30467,8.60605 0.60933,-18.40281 0.30467,-1.37653 0.30467,32.14343 0.60934,-56.8116 0.30467,16.73251 0.30466,-27.14526 0.60934,-25.34819 0.30467,-0.60368 0.60934,25.67422 0.30466,27.69043 0.30467,-4.29018 0.30467,-8.35359 0.30467,22.63101 0.30467,-13.57954 0.30467,-29.31248 0.60933,23.87581 0.30467,-11.94091 0.30467,9.46012 0.30467,-1.9016 0.30467,-6.28357 0.30466,6.33361 0.30467,-4.68998 0.60934,11.66202 0.30467,14.782 0.30467,-3.90402 0.30466,-23.86272 0.30467,-5.13341 0.30467,-13.37902 0.30467,21.31422 0.30467,-3.03711 0.30466,-36.66454 0.30467,2.42698 0.60934,85.52186 0.30467,-54.73604 0.30467,-28.97625 0.30466,33.73083 0.30467,2.43794 0.30467,5.12165 0.60934,-13.79073 0.30467,3.09036 0.30466,-1.8631 0.30467,-7.37826 0.30467,10.02843 0.30467,6.12973 0.30467,-27.61833 0.30467,-6.08753 0.914,39.26581 0.30467,-35.42201 0.30467,-15.242766 0.30467,36.563696 0.30466,-13.72604 0.30467,-5.79482 0.30467,25.99741 0.60934,-28.45618 0.30467,8.66752 0.30466,26.68379 0.30467,-6.50052 0.30467,-15.63794 0.30467,16.0538 0.30467,0.385 0.30467,27.76982 0.30466,-1.36146 0.30467,-37.25235 0.30467,-3.81452 0.30467,-16.11464 0.30467,9.60653 0.30467,0.0737 0.30466,-33.486497 0.60934,20.802797 0.30467,-2.30251 0.30467,5.02615 0.30467,-11.376026 0.30466,14.986616 0.30467,25.26532 0.30467,-17.10233 0.30467,-8.2412 0.30467,-3.17212 0.60933,40.45584 0.30467,-30.73575 0.30467,9.73146 0.30467,-0.79813 0.30467,4.32448 0.30466,11.48056 0.30467,-8.88682 0.30467,22.8115 0.60934,-33.16244 0.30467,-2.24872 0.30466,-22.06528 0.60934,59.33179 0.30467,-5.56582 0.30467,-9.09789 0.30467,-22.22968 0.60933,23.21034 0.30467,-8.30865 0.30467,22.46119 0.30467,6.18353 0.30467,-9.91703 0.60933,-34.3382 0.30467,12.64583 0.30467,1.77658 0.30467,-3.24951 0.30467,-6.95088 0.30466,-3.12596 0.30467,10.77187 0.30467,-11.41609 0.30467,13.00131 0.30467,6.72299 0.30467,10.73637 0.30466,31.85789 0.30467,-10.8273 0.30467,18.06907 0.30467,5.24707 0.30467,-27.24041 0.30467,4.2758 0.30466,-12.99685 0.30467,-17.82975 0.30467,1.34686 0.30467,29.65943 0.30467,8.85174 0.30467,-17.49852 0.30466,-2.96244 0.30467,-7.05216 0.30467,7.24677 0.30467,2.01484 0.60934,9.43159 0.60933,35.45475 0.30467,-46.92762 0.30467,14.68541 0.30467,36.03055 0.30466,-19.4712 0.30467,6.8087 0.60934,-49.69946 0.30467,17.49169 0.60933,-28.97733 0.30467,7.56921 0.30467,-4.03364 0.30467,-10.81747 0.30467,2.62437 0.30467,-19.96227 0.30466,5.00508 0.30467,24.47159 0.30467,-6.55382 0.30467,-1.87516 0.30467,-6.03933 0.30467,19.41656 0.30466,-6.38857 0.30467,-26.99157 0.30467,14.67815 0.30467,-10.92711 0.60934,-6.77746 0.30467,-15.263432 0.30466,19.586632 0.30467,1.6479 0.30467,-33.551144 0.30467,0.685735 0.30467,12.266688 0.30467,1.398081 0.30466,30.74216 0.30467,-4.55965 0.30467,-16.76153 0.30467,13.93237 0.30467,7.34012 0.30466,12.44332 0.30467,5.26095 0.30467,-5.26044 0.60934,-19.44675 0.60933,50.31979 0.30467,-34.78105 0.30467,-8.61423 0.30467,13.10638 0.30467,-10.71405 0.30467,15.52478 0.60933,-64.904994 0.30467,18.229844 0.30467,2.05272 0.914,-18.127703 0.30467,9.18618 0.30467,-5.005807 0.30467,-8.47083 0.30467,17.737917 0.30466,-5.118608 0.30467,2.250177 0.30467,13.726544 0.30467,-9.25893 0.30467,3.80439 0.30467,12.75222 0.60933,38.49623 0.60934,-44.7233 0.30467,-12.599553 0.30467,-1.709684 0.30467,30.211677 0.30466,0.86615 0.60934,-22.64678 0.30467,12.5141 0.30467,24.91517 0.30467,-33.13702 0.30466,-11.809189 0.60934,13.317939 0.30467,28.13861 0.30467,-40.440898 0.30466,-25.265056 0.30467,17.711588 0.30467,4.231784 0.30467,17.305432 0.30467,-10.50039 0.30467,-4.164933 0.60933,-11.561678 0.30467,12.47034 0.30467,7.744831 0.30467,30.92131 0.60933,-45.161861 0.30467,42.054921 0.30467,-17.55146 0.30467,-10.48456 0.30467,25.50441 0.30467,-31.81911 0.30466,-14.982944 0.30467,24.248864 0.30467,-12.032461 0.60934,45.374881 0.30467,-35.55654 0.30466,2.13232 0.30467,30.94454 0.30467,8.81224 0.30467,3.9435 0.30467,-27.5279 0.30467,-7.95697 0.30466,23.39578 0.30467,1.16012 0.60934,20.9971 0.30467,-4.91745 0.30467,11.73088 0.30466,-13.54928 0.30467,1.23195 0.30467,18.03906 0.30467,-16.79622 1.21867,30.54958 0.30467,-18.87658 0.30467,6.80997 0.30467,32.20327 0.30466,11.88564 0.30467,-32.972 0.30467,-18.69514 0.30467,25.17141 0.30467,10.4213 0.30467,-31.58941 0.30466,-0.58964 0.30467,6.48415 0.30467,-36.23744 0.30467,9.59456 0.30467,2.6633 0.30467,6.47071 0.30466,20.26001 0.30467,-31.81387 0.30467,4.53899 0.30467,22.77646 0.30467,10.32346 0.30467,-9.80825 0.30466,9.2113 0.30467,29.93584 0.30467,-24.85118 0.30467,-9.72397 0.30467,7.89423 0.60933,-54.06435 0.30467,26.33699 0.30467,42.08131 0.60934,-84.73684 0.60933,9.11212 0.60934,45.76972 0.30467,5.30505 0.60934,-51.76507 0.30466,10.46905 0.30467,-12.95237 0.30467,-18.27897 0.30467,24.6426 0.30467,-7.96853 0.30467,-14.47138 0.30466,1.22461 0.30467,16.42304 0.60934,1.22886 0.30467,37.24807 0.60933,-25.31556 0.30467,24.27724 0.60934,-23.30327 0.60933,-8.09128 0.30467,-0.98615 0.30467,-10.35543 0.30467,-3.68541 0.30467,-16.86612 0.30467,9.52902 0.30466,20.12257 0.30467,-27.852 0.30467,2.88696 0.30467,-1.68177 0.30467,-31.7501 0.30467,-8.104042 0.30466,2.795568 0.30467,21.683812 0.30467,-17.502927 0.30467,-0.104202 0.30467,24.780716 0.30467,-24.915312 0.30466,15.133417 0.30467,24.05407 0.30467,-9.3933 0.30467,-4.82756 0.30467,3.69075 0.30467,0.64014 0.30466,-14.633551 0.60934,12.279373 0.30467,-17.714789 0.30467,6.040126 0.30467,17.571911 0.30466,0.29221 0.30467,-20.0428 0.30467,-0.181572 0.30467,2.959995 0.30467,-13.628685 0.30467,38.825662 0.30466,21.47526 0.30467,-22.65167 0.30467,-3.99796 0.60934,24.4376 0.30467,-3.92323 0.30466,-8.42119 0.30467,-26.808332 0.30467,-8.487533 0.30467,20.226885 0.30467,-18.314391 0.30467,1.104423 0.30466,0.526987 0.30467,-26.991046 0.30467,15.350557 0.30467,-5.65152 0.30467,16.299574 0.30466,2.635218 0.30467,-22.301874 0.30467,31.002772 0.30467,-12.714714 0.30467,6.733831 0.30467,3.849873 0.30466,9.29245 0.30467,40.37772 0.30467,-38.78413 0.30467,-16.428607 0.30467,27.014827 0.30467,14.59935 0.30467,1.23508 0.30466,-11.73518 0.30467,-24.134901 0.30467,1.643011 0.30467,22.33146 0.30467,-12.44957 0.30467,6.2868 0.60933,-27.566982 0.30467,33.387682 0.30467,-7.75093 0.30467,-13.3086 0.30467,5.46914 0.30466,-1.75278 0.30467,3.54764 0.30467,-0.0997 0.30467,0.64927 0.30467,10.45077 0.30466,-6.0067 0.60934,9.20388 0.30467,-18.14828 0.30467,12.09879 0.30467,-2.91843 0.30466,-1.6357 0.30467,10.40472 0.30467,-31.53947 0.60934,16.8056 0.30467,19.87466 0.30466,37.06178 0.30467,-58.09218 0.30467,-3.61685 0.30467,27.04749 0.30467,-3.07054 0.30467,37.34376 0.30466,-22.46698 0.30467,-10.09407 0.30467,11.03077 0.30467,0.35444 0.30467,-6.53583 0.30467,-20.9451 0.30466,25.27771 0.30467,-8.79499 0.30467,-3.23784 0.30467,21.69356 0.30467,-7.82449 0.30467,30.14881 0.30466,-1.21702 0.30467,-24.96775 0.60934,52.73397 0.30467,-3.05482 0.30467,-40.89203 0.30466,1.41343 0.30467,12.37355 0.30467,-19.60752 0.30467,16.82209 0.30467,-5.71734 0.30466,-23.90971 0.30467,21.81653 0.30467,11.62617 0.60934,-44.45983 v 0"
             clip-path="url(#p178d1240f2)"
             style="fill:none;stroke:#000000;stroke-width:1.5;stroke-linecap:square"
             id="path471" /></g></g></g></g></svg>
